^C:\USERS\DELL\SOURCE\REPOS\FIRSTGIT\FIRSTGIT.CPP
C:\USERS\DELL\SOURCE\REPOS\FIRSTGIT\DEBUG\VC142.PDB
C:\USERS\DELL\SOURCE\REPOS\FIRSTGIT\DEBUG\VC142.IDB
C:\USERS\DELL\SOURCE\REPOS\FIRSTGIT\DEBUG\FIRSTGIT.OBJ
